Datetime,ADC,mA,Bar
19-11-20 16:47:00,18280,14.488548303832534,6.555342689895333
19-11-20 16:47:59,18878,14.962517225369288,6.851573265855805
19-11-20 16:48:59,18819,14.915754405351446,6.822346503344654
19-11-20 16:49:59,18857,14.945872831803616,6.841170519877259
19-11-20 16:50:59,19053,15.10122050508322,6.938262815677012
19-11-20 16:51:59,19008,15.065553947442494,6.915971217151559
19-11-20 16:52:59,18466,14.6359700754142,6.647481297133875
19-11-20 16:53:59,19256,15.262116309551383,7.038822693469614
19-11-20 16:54:59,19194,15.21297571902416,7.008109824390099
19-11-20 16:55:59,19156,15.182857292571992,6.989285807857495
19-11-20 16:56:59,18541,14.695414338148742,6.684633961342964
19-11-20 16:57:59,18468,14.637555255753787,6.648472034846117
19-11-20 16:58:59,19247,15.254982998023237,7.034364373764523
19-11-20 16:59:59,18731,14.846006470409584,6.77875404400599
19-11-20 17:00:59,18973,15.037813291499708,6.898633307187318
19-11-20 17:01:59,19064,15.109938996950953,6.943711873094346
19-11-20 17:02:59,18536,14.691451387299772,6.682157117062357
19-11-20 17:03:59,19075,15.118657488818686,6.949160930511678
19-11-20 17:04:59,18920,14.995806012500632,6.8723787578128945
19-11-20 17:05:59,18884,14.967272766388051,6.854545478992532
19-11-20 17:06:59,18812,14.91020627416289,6.818878921351806
19-11-20 17:07:58,18471,14.639933026263169,6.64995814141448
19-11-20 17:08:58,18813,14.910998864332683,6.819374290207927
19-11-20 17:09:58,18720,14.83728797854185,6.7733049865886565
19-11-20 17:10:58,17339,13.742720954056471,6.089200596285295
19-11-20 17:11:58,18035,14.294363712233027,6.433977320145642
19-11-20 17:12:58,18346,14.540859255038932,6.588037034399332
19-11-20 17:13:58,17572,13.92739446361845,6.204621539761531
19-11-20 17:14:58,18983,15.045739193197647,6.90358699574853
19-11-20 17:15:58,18496,14.659747780508017,6.66234236281751
19-11-20 17:16:58,18622,14.759614141902048,6.72475883868878
19-11-20 17:17:58,18275,14.484585352983563,6.552865845614727
19-11-20 17:18:58,17491,13.863194659865144,6.164496662415715
19-11-20 17:19:58,18334,14.531348173001405,6.582092608125878
19-11-20 17:20:58,19016,15.071894668800846,6.919934168000529
19-11-20 17:21:58,19137,15.167798079345907,6.979873799591192
19-11-20 17:22:58,19259,15.264494080060764,7.040308800037978
19-11-20 17:23:58,18690,14.813510273448033,6.75844392090502
19-11-20 17:24:58,19169,15.193160964779313,6.99572560298707
19-11-20 17:25:58,19003,15.061590996593525,6.913494372870953
19-11-20 17:26:58,18761,14.869784175503401,6.793615109689625
19-11-20 17:27:58,17834,14.135053088104453,6.334408180065283
19-11-20 17:28:58,18918,14.994220832161043,6.871388020100651
19-11-20 17:29:58,19245,15.253397817683648,7.03337363605228
19-11-20 17:30:58,19266,15.27004221124932,7.043776382030825
19-11-20 17:31:58,18848,14.93873952027547,6.836712200172169
19-11-20 17:32:58,18822,14.918132175860828,6.823832609913017
19-11-20 17:33:58,18990,15.051287324386204,6.907054577741377
19-11-20 17:34:58,19193,15.212183128854367,7.007614455533979
19-11-20 17:35:58,19054,15.102013095253014,6.938758184533134
19-11-20 17:36:58,19223,15.235960833948184,7.022475521217615
19-11-20 17:37:58,19216,15.230412702759626,7.019007939224766
19-11-20 17:38:58,19294,15.29223473600355,7.057646710002219
19-11-20 17:39:57,19089,15.1297537511958,6.956096094497375
19-11-20 17:40:57,19357,15.342167916700566,7.088854947937854
19-11-20 17:41:57,18911,14.988672700972486,6.867920438107804
19-11-20 17:42:57,19197,15.215353489533541,7.009595930958463
19-11-20 17:43:57,19616,15.547448770677187,7.217155481673242
19-11-20 17:44:57,19075,15.118657488818686,6.949160930511678
19-11-20 17:45:57,19193,15.212183128854367,7.007614455533979
19-11-20 17:46:57,19079,15.121827849497862,6.951142405936164
19-11-20 17:47:57,19291,15.289856965494169,7.056160603433855
19-11-20 17:48:57,17891,14.180230727782705,6.362644204864191
19-11-20 17:49:57,18127,14.367282007854067,6.479551254908792
19-11-20 17:50:57,19254,15.260531129211794,7.037831955757371
19-11-20 17:51:57,18864,14.951420962992172,6.844638101870108
19-11-20 17:52:57,18604,14.745347518845758,6.715842199278599
19-11-20 17:53:57,18878,14.962517225369288,6.851573265855805
19-11-20 17:54:57,18428,14.60585164896203,6.628657280601269
19-11-20 17:55:57,18709,14.828569486674118,6.767855929171324
19-11-20 17:56:57,18681,14.806376961919888,6.75398560119993
19-11-20 17:57:57,18443,14.617740501508939,6.636087813443087
19-11-20 17:58:57,18878,14.962517225369288,6.851573265855805
19-11-20 17:59:57,19265,15.269249621079528,7.043281013174704
19-11-20 18:00:57,19200,15.217731260042923,7.011082037526827
19-11-20 18:01:57,18946,15.016413356915272,6.885258348072045
19-11-20 18:02:57,19204,15.220901620722099,7.013063512951312
19-11-20 18:03:57,18266,14.477452041455418,6.548407525909637
19-11-20 18:04:57,18880,14.964102405708875,6.852564003568046
19-11-20 18:05:57,18854,14.943495061294234,6.8396844133088965
19-11-20 18:06:57,18831,14.925265487388973,6.828290929618108
19-11-20 18:07:57,19184,15.205049817326222,7.003156135828888
19-11-20 18:08:57,18846,14.937154339935882,6.835721462459926
19-11-20 18:09:57,19020,15.07506502948002,6.921915643425013
19-11-20 18:10:57,18802,14.90228037246495,6.813925232790594
19-11-20 18:11:56,17950,14.226993547800546,6.3918709673753416
19-11-20 18:12:56,18631,14.766747453430193,6.729217158393871
19-11-20 18:13:56,18711,14.830154667013705,6.768846666883565
19-11-20 18:14:56,18994,15.05445768506538,6.909036053165862
19-11-20 18:15:56,19040,15.0909168328759,6.931823020547437
19-11-20 18:16:56,18972,15.037020701329913,6.898137938331196
19-11-20 18:17:56,19158,15.184442472911579,6.990276545569737
19-11-20 18:18:56,19003,15.061590996593525,6.913494372870953
19-11-20 18:19:56,17978,14.249186072554775,6.4057412953467345
19-11-20 18:20:56,17744,14.063719972823002,6.289824983014376
19-11-20 18:21:56,18223,14.443370664154282,6.527106665096426
19-11-20 18:22:56,18371,14.560674009283778,6.600421255802361
19-11-20 18:23:56,18688,14.811925093108446,6.757453183192778
19-11-20 18:24:56,18871,14.95696909418073,6.848105683862956
19-11-20 18:25:56,18689,14.81271768327824,6.7579485520489
19-11-20 18:26:56,18770,14.876917487031546,6.798073429394717
19-11-20 18:27:56,18702,14.82302135548556,6.764388347178475
19-11-20 18:28:56,19235,15.24547191598571,7.028419947491069
19-11-20 18:29:56,19280,15.281138473626436,7.050711546016522
19-11-20 18:30:56,19239,15.248642276664885,7.030401422915553
19-11-20 18:31:56,19303,15.299368047531695,7.062105029707309
19-11-20 18:32:56,18903,14.982331979614134,6.863957487258833
19-11-20 18:33:56,18717,14.834910208032468,6.771818880020293
19-11-20 18:34:56,19192,15.211390538684572,7.007119086677857
19-11-20 18:35:56,19061,15.107561226441572,6.942225766525983
19-11-20 18:36:56,19479,15.438863917415423,7.14928994838464
19-11-20 18:37:56,18990,15.051287324386204,6.907054577741377
19-11-20 18:38:56,19021,15.075857619649815,6.922411012281135
19-11-20 18:39:56,19362,15.346130867549535,7.091331792218459
19-11-20 18:40:56,19464,15.426975064868515,7.141859415542822
19-11-20 18:41:56,19426,15.396856638416345,7.123035399010216
19-11-20 18:42:55,19217,15.23120529292942,7.019503308080887
19-11-20 18:43:55,19450,15.415878802491399,7.134924251557124
19-11-20 18:44:55,19484,15.442826868264392,7.151766792665245
19-11-20 18:45:55,18938,15.010072635556922,6.881295397223076
19-11-20 18:46:55,19236,15.246264506155503,7.02891531634719
19-11-20 18:47:55,19231,15.242301555306534,7.026438472066584
19-11-20 18:48:55,19336,15.325523523134894,7.078452201959308
19-11-20 18:49:55,19426,15.396856638416345,7.123035399010216
19-11-20 18:50:55,18888,14.970443127067226,6.856526954417016
19-11-20 18:51:55,19205,15.221694210891894,7.013558881807434
19-11-20 18:52:55,19184,15.205049817326222,7.003156135828888
19-11-20 18:53:55,18910,14.987880110802692,6.8674250692516825
19-11-20 18:54:55,19336,15.325523523134894,7.078452201959308
19-11-20 18:55:55,19097,15.136094472554152,6.960059045346345
19-11-20 18:56:55,19312,15.30650135905984,7.0665633494124
19-11-23 06:05:48,20143,15.965143790158573,7.478214868849108
19-11-23 11:22:00,18280,14.488548303832534,6.555342689895333
19-11-23 11:23:00,18136,14.374415319382212,6.484009574613882
19-11-23 11:24:00,18343,14.53848148452955,6.586550927830968
19-11-23 11:25:00,17130,13.577069608569547,5.985668505355966
19-11-23 11:26:00,18104,14.349052433948806,6.468157771218004
19-11-23 11:27:00,18552,14.704132830016475,6.690083018760297
19-11-23 11:28:00,17965,14.238882400347455,6.39930150021716
19-11-23 11:29:00,18823,14.918924766030623,6.824327978769139
19-11-23 11:30:00,18595,14.738214207317613,6.711383879573508
19-11-23 11:31:00,18448,14.62170345235791,6.638564657723693
19-11-23 11:32:00,18637,14.771502994448957,6.732189371530598
19-11-23 11:33:00,18300,14.504400107228411,6.565250067017757
19-11-23 11:34:00,18214,14.436237352626136,6.522648345391335
19-11-23 11:35:00,18040,14.298326663081998,6.436454164426248
19-11-23 11:36:00,18184,14.41245964753232,6.507787279707699
19-11-23 11:37:00,18333,14.53055558283161,6.581597239269756
19-11-23 11:37:59,18683,14.807962142259477,6.754976338912173
19-11-23 11:38:59,18914,14.991050471481868,6.869406544676168
19-11-23 11:39:59,18645,14.777843715807307,6.736152322379567
19-11-23 11:40:59,18184,14.41245964753232,6.507787279707699
19-11-23 11:41:59,18305,14.50836305807738,6.5677269112983625
